# SPDX-FileCopyrightText: (C) 2016 Thomas Geymayer
# SPDX-FileCopyrightText: (C) 2022 James Turner <james@flightgear.org>
# SPDX-License-Identifier: GPL-2.0-or-later

gui.widgets.Button = {
  _CLASS: "Button",

  new: func(parent, style = nil, cfg = nil)
  {
    cfg = Config.new(cfg);
    style = style or canvas.style;
    var m = gui.Widget.new(gui.widgets.Button, cfg);
    m._focus_policy = m.StrongFocus;

    m._checkable = cfg.get("checkable", 0);
    if (m._checkable) {
        m._down = cfg.get("checked", 0);
    } else {
    	m._down = 0;
    }
    m._flat = cfg.get("flat", 0);
    m._isDefault = cfg.get("default", 0);
    m._destructive = cfg.get("destructive", 0);

    m._setView(style.createWidget(parent, cfg.get("type", "button"), cfg));

    m.setText(cfg.get("text", ""));

    return m;
  },
  setText: func(text)
  {
    if ( me._view != nil )
      me._view.setText(me, text);
    return me;
  },
  setCheckable: func(checkable)
  {
    me._checkable = checkable;
    return me;
  },
  setChecked: func(checked = 1)
  {
    if( !me._checkable or me._down == checked )
      return me;

    me._trigger("clicked", {checked: checked});
    me._trigger("toggled", {checked: checked});

    me._down = checked;
    me._onStateChange();
    return me;
  },
  checked: func {
    return me._down;
  },
  setDown: func(down = 1)
  {
    if( me._checkable or me._down == down )
      return me;

    me._down = down;
    me._onStateChange();
    return me;
  },
  toggle: func
  {
    if( !me._checkable )
      me._trigger("clicked", {checked: 0});
    else
      me.setChecked(!me._down);

    return me;
  },
  setDefault: func(isDefault)
  {
    me._isDefault = isDefault;
    return me;
  },
  setDestructive: func(isDestructive)
  {
    me._destructive = isDestructive;
    return me;
  },
# protected:
  _setView: func(view)
  {
    call(gui.Widget._setView, [view], me);

    var el = view._root;
    el.addEventListener("mousedown", func if( me._enabled ) me.setDown(1));
    el.addEventListener("mouseup",   func if( me._enabled ) me.setDown(0));
    el.addEventListener("click",     func if( me._enabled ) me.toggle());

    el.addEventListener("mouseleave",func me.setDown(0));
    el.addEventListener("drag", func(e) e.stopPropagation());
  }
};
